epoch,acc,learning_rate,loss,val_acc,val_learning_rate,val_loss
0,0.915301501750946,9.999999747378752e-05,0.2714429497718811,NA,NA,NA
1,0.9208305478096008,9.999999747378752e-05,0.23094581067562103,NA,NA,NA
2,0.9177642464637756,9.999999747378752e-05,0.22243383526802063,NA,NA,NA
3,0.9142876267433167,9.999999747378752e-05,0.22231745719909668,NA,NA,NA
4,0.9190711379051208,9.999999747378752e-05,0.21473729610443115,NA,NA,NA
